Output Projection is None
2
2
2
2
2
2
2
2
2
2
2
2
2
2
2
2
2
2
2
2
2
2
2
2
2
2
2
2
2
2
2
2
2
2
2
2
2
2
2
2
2
2
2
2
2
2
2
2
2
2
Created BASIC_RNN ctLSTM model with fresh parameters.
global step 50 learning rate 0.5000 step-time 0.09 perplexity 65.76
  val: perplexity 31.62
global step 100 learning rate 0.5000 step-time 0.08 perplexity 30.34
  val: perplexity 23.71
global step 150 learning rate 0.5000 step-time 0.08 perplexity 21.86
  val: perplexity 20.63
global step 200 learning rate 0.5000 step-time 0.08 perplexity 19.07
  val: perplexity 14.06
global step 250 learning rate 0.5000 step-time 0.08 perplexity 16.37
  val: perplexity 13.69
global step 300 learning rate 0.5000 step-time 0.08 perplexity 16.05
  val: perplexity 12.69
global step 350 learning rate 0.5000 step-time 0.08 perplexity 15.14
  val: perplexity 15.05
global step 400 learning rate 0.5000 step-time 0.08 perplexity 14.87
  val: perplexity 14.59
global step 450 learning rate 0.5000 step-time 0.08 perplexity 14.84
  val: perplexity 12.47
global step 500 learning rate 0.5000 step-time 0.08 perplexity 14.05
  val: perplexity 12.70
global step 550 learning rate 0.5000 step-time 0.08 perplexity 12.69
  val: perplexity 14.01
global step 600 learning rate 0.5000 step-time 0.08 perplexity 11.70
  val: perplexity 10.34
global step 650 learning rate 0.5000 step-time 0.08 perplexity 10.76
  val: perplexity 9.70
global step 700 learning rate 0.5000 step-time 0.08 perplexity 10.69
  val: perplexity 10.92
global step 750 learning rate 0.5000 step-time 0.08 perplexity 9.91
  val: perplexity 8.75
global step 800 learning rate 0.5000 step-time 0.08 perplexity 9.58
  val: perplexity 8.12
global step 850 learning rate 0.5000 step-time 0.08 perplexity 9.08
  val: perplexity 8.24
global step 900 learning rate 0.5000 step-time 0.08 perplexity 9.60
  val: perplexity 7.63
global step 950 learning rate 0.5000 step-time 0.08 perplexity 9.09
  val: perplexity 7.68
global step 1000 learning rate 0.5000 step-time 0.08 perplexity 9.04
  val: perplexity 9.49
global step 1050 learning rate 0.5000 step-time 0.08 perplexity 8.72
  val: perplexity 8.38
global step 1100 learning rate 0.5000 step-time 0.08 perplexity 8.44
  val: perplexity 6.80
global step 1150 learning rate 0.5000 step-time 0.08 perplexity 8.57
  val: perplexity 8.17
global step 1200 learning rate 0.5000 step-time 0.08 perplexity 8.25
  val: perplexity 8.49
global step 1250 learning rate 0.5000 step-time 0.08 perplexity 8.38
  val: perplexity 10.00
global step 1300 learning rate 0.5000 step-time 0.08 perplexity 8.17
  val: perplexity 8.86
global step 1350 learning rate 0.5000 step-time 0.08 perplexity 8.18
  val: perplexity 8.03
global step 1400 learning rate 0.5000 step-time 0.08 perplexity 8.18
  val: perplexity 5.80
global step 1450 learning rate 0.5000 step-time 0.08 perplexity 7.89
  val: perplexity 10.50
global step 1500 learning rate 0.5000 step-time 0.08 perplexity 8.19
  val: perplexity 6.42
global step 1550 learning rate 0.4950 step-time 0.08 perplexity 7.80
  val: perplexity 7.74
global step 1600 learning rate 0.4950 step-time 0.08 perplexity 7.75
  val: perplexity 7.35
global step 1650 learning rate 0.4950 step-time 0.08 perplexity 7.69
  val: perplexity 7.72
global step 1700 learning rate 0.4950 step-time 0.08 perplexity 7.63
  val: perplexity 6.34
global step 1750 learning rate 0.4950 step-time 0.08 perplexity 7.74
  val: perplexity 8.32
global step 1800 learning rate 0.4950 step-time 0.08 perplexity 7.48
  val: perplexity 9.19
global step 1850 learning rate 0.4950 step-time 0.08 perplexity 7.30
  val: perplexity 8.94
global step 1900 learning rate 0.4950 step-time 0.08 perplexity 7.63
  val: perplexity 5.54
global step 1950 learning rate 0.4950 step-time 0.08 perplexity 7.20
  val: perplexity 7.10
global step 2000 learning rate 0.4950 step-time 0.08 perplexity 7.21
  val: perplexity 5.76
global step 2050 learning rate 0.4950 step-time 0.08 perplexity 7.36
  val: perplexity 7.17
global step 2100 learning rate 0.4950 step-time 0.08 perplexity 7.29
  val: perplexity 9.25
global step 2150 learning rate 0.4950 step-time 0.08 perplexity 7.06
  val: perplexity 7.31
global step 2200 learning rate 0.4950 step-time 0.08 perplexity 7.01
  val: perplexity 6.30
global step 2250 learning rate 0.4950 step-time 0.08 perplexity 7.01
  val: perplexity 8.69
global step 2300 learning rate 0.4950 step-time 0.08 perplexity 6.70
  val: perplexity 8.22
global step 2350 learning rate 0.4950 step-time 0.08 perplexity 6.76
  val: perplexity 5.69
global step 2400 learning rate 0.4950 step-time 0.08 perplexity 6.60
  val: perplexity 7.29
global step 2450 learning rate 0.4950 step-time 0.08 perplexity 6.65
  val: perplexity 6.18
global step 2500 learning rate 0.4950 step-time 0.08 perplexity 6.44
  val: perplexity 5.02
global step 2550 learning rate 0.4950 step-time 0.08 perplexity 6.59
  val: perplexity 6.69
global step 2600 learning rate 0.4950 step-time 0.08 perplexity 6.57
  val: perplexity 7.59
global step 2650 learning rate 0.4950 step-time 0.08 perplexity 6.47
  val: perplexity 7.74
global step 2700 learning rate 0.4950 step-time 0.08 perplexity 6.35
  val: perplexity 5.69
global step 2750 learning rate 0.4950 step-time 0.08 perplexity 6.18
  val: perplexity 4.61
global step 2800 learning rate 0.4950 step-time 0.08 perplexity 6.04
  val: perplexity 6.34
global step 2850 learning rate 0.4950 step-time 0.08 perplexity 6.08
  val: perplexity 7.17
global step 2900 learning rate 0.4950 step-time 0.08 perplexity 5.87
  val: perplexity 5.12
global step 2950 learning rate 0.4950 step-time 0.08 perplexity 5.95
  val: perplexity 5.91
global step 3000 learning rate 0.4950 step-time 0.08 perplexity 5.78
  val: perplexity 6.78
global step 3050 learning rate 0.4950 step-time 0.08 perplexity 5.95
  val: perplexity 7.62
global step 3100 learning rate 0.4950 step-time 0.08 perplexity 5.61
  val: perplexity 6.53
global step 3150 learning rate 0.4950 step-time 0.08 perplexity 5.56
  val: perplexity 5.82
global step 3200 learning rate 0.4950 step-time 0.08 perplexity 5.64
  val: perplexity 5.26
global step 3250 learning rate 0.4950 step-time 0.08 perplexity 5.72
  val: perplexity 6.08
global step 3300 learning rate 0.4901 step-time 0.08 perplexity 5.48
  val: perplexity 5.79
global step 3350 learning rate 0.4901 step-time 0.08 perplexity 5.35
  val: perplexity 4.90
global step 3400 learning rate 0.4901 step-time 0.08 perplexity 5.03
  val: perplexity 5.22
global step 3450 learning rate 0.4901 step-time 0.08 perplexity 5.12
  val: perplexity 6.92
global step 3500 learning rate 0.4901 step-time 0.08 perplexity 5.02
  val: perplexity 6.16
global step 3550 learning rate 0.4901 step-time 0.08 perplexity 5.04
  val: perplexity 4.67
global step 3600 learning rate 0.4901 step-time 0.08 perplexity 4.94
  val: perplexity 6.79
global step 3650 learning rate 0.4901 step-time 0.08 perplexity 4.67
  val: perplexity 4.76
global step 3700 learning rate 0.4901 step-time 0.08 perplexity 4.76
  val: perplexity 6.22
global step 3750 learning rate 0.4901 step-time 0.08 perplexity 4.71
  val: perplexity 4.17
global step 3800 learning rate 0.4901 step-time 0.08 perplexity 4.56
  val: perplexity 4.45
global step 3850 learning rate 0.4901 step-time 0.08 perplexity 4.58
  val: perplexity 6.16
global step 3900 learning rate 0.4901 step-time 0.08 perplexity 4.47
  val: perplexity 4.96
global step 3950 learning rate 0.4901 step-time 0.08 perplexity 4.40
  val: perplexity 4.09
global step 4000 learning rate 0.4901 step-time 0.08 perplexity 4.35
  val: perplexity 3.74
global step 4050 learning rate 0.4901 step-time 0.08 perplexity 4.50
  val: perplexity 4.10
global step 4100 learning rate 0.4851 step-time 0.08 perplexity 4.22
  val: perplexity 5.20
global step 4150 learning rate 0.4851 step-time 0.08 perplexity 4.21
  val: perplexity 4.41
global step 4200 learning rate 0.4851 step-time 0.08 perplexity 4.23
  val: perplexity 4.70
global step 4250 learning rate 0.4851 step-time 0.08 perplexity 4.23
  val: perplexity 4.47
global step 4300 learning rate 0.4851 step-time 0.08 perplexity 4.11
  val: perplexity 5.50
global step 4350 learning rate 0.4851 step-time 0.08 perplexity 3.95
  val: perplexity 3.46
global step 4400 learning rate 0.4851 step-time 0.08 perplexity 3.80
  val: perplexity 4.54
global step 4450 learning rate 0.4851 step-time 0.08 perplexity 3.83
  val: perplexity 3.07
global step 4500 learning rate 0.4851 step-time 0.08 perplexity 3.67
  val: perplexity 4.35
global step 4550 learning rate 0.4851 step-time 0.08 perplexity 3.75
  val: perplexity 4.84
global step 4600 learning rate 0.4851 step-time 0.08 perplexity 3.68
  val: perplexity 3.74
global step 4650 learning rate 0.4851 step-time 0.08 perplexity 3.84
  val: perplexity 4.02
global step 4700 learning rate 0.4803 step-time 0.08 perplexity 3.69
  val: perplexity 3.96
global step 4750 learning rate 0.4803 step-time 0.08 perplexity 3.69
  val: perplexity 4.12
global step 4800 learning rate 0.4803 step-time 0.08 perplexity 3.52
  val: perplexity 4.63
global step 4850 learning rate 0.4803 step-time 0.08 perplexity 3.51
  val: perplexity 4.95
global step 4900 learning rate 0.4803 step-time 0.08 perplexity 3.51
  val: perplexity 4.15
global step 4950 learning rate 0.4803 step-time 0.08 perplexity 3.39
  val: perplexity 4.12
global step 5000 learning rate 0.4803 step-time 0.08 perplexity 3.26
  val: perplexity 3.72
global step 5050 learning rate 0.4803 step-time 0.08 perplexity 3.24
  val: perplexity 3.74
global step 5100 learning rate 0.4803 step-time 0.08 perplexity 3.31
  val: perplexity 5.56
global step 5150 learning rate 0.4803 step-time 0.08 perplexity 3.28
  val: perplexity 4.19
global step 5200 learning rate 0.4803 step-time 0.08 perplexity 3.14
  val: perplexity 3.20
global step 5250 learning rate 0.4803 step-time 0.08 perplexity 3.20
  val: perplexity 2.54
global step 5300 learning rate 0.4803 step-time 0.08 perplexity 3.27
  val: perplexity 3.20
global step 5350 learning rate 0.4803 step-time 0.08 perplexity 3.16
  val: perplexity 3.83
global step 5400 learning rate 0.4803 step-time 0.08 perplexity 3.10
  val: perplexity 3.80
global step 5450 learning rate 0.4803 step-time 0.08 perplexity 3.12
  val: perplexity 4.60
global step 5500 learning rate 0.4803 step-time 0.08 perplexity 3.05
  val: perplexity 3.07
global step 5550 learning rate 0.4803 step-time 0.08 perplexity 2.99
  val: perplexity 4.36
global step 5600 learning rate 0.4803 step-time 0.08 perplexity 2.98
  val: perplexity 3.04
global step 5650 learning rate 0.4803 step-time 0.08 perplexity 3.00
  val: perplexity 3.54
global step 5700 learning rate 0.4803 step-time 0.08 perplexity 2.94
  val: perplexity 3.87
global step 5750 learning rate 0.4803 step-time 0.08 perplexity 2.97
  val: perplexity 2.93
global step 5800 learning rate 0.4803 step-time 0.08 perplexity 2.90
  val: perplexity 2.91
global step 5850 learning rate 0.4803 step-time 0.08 perplexity 3.02
  val: perplexity 3.11
global step 5900 learning rate 0.4755 step-time 0.08 perplexity 2.85
  val: perplexity 2.95
global step 5950 learning rate 0.4755 step-time 0.08 perplexity 2.89
  val: perplexity 3.17
global step 6000 learning rate 0.4755 step-time 0.08 perplexity 2.83
  val: perplexity 3.30
global step 6050 learning rate 0.4755 step-time 0.08 perplexity 2.77
  val: perplexity 3.78
global step 6100 learning rate 0.4755 step-time 0.08 perplexity 2.77
  val: perplexity 2.58
global step 6150 learning rate 0.4755 step-time 0.08 perplexity 2.77
  val: perplexity 3.78
global step 6200 learning rate 0.4755 step-time 0.08 perplexity 2.77
  val: perplexity 3.32
global step 6250 learning rate 0.4755 step-time 0.08 perplexity 2.81
  val: perplexity 3.28
global step 6300 learning rate 0.4707 step-time 0.08 perplexity 2.67
  val: perplexity 3.33
global step 6350 learning rate 0.4707 step-time 0.08 perplexity 2.72
  val: perplexity 2.45
global step 6400 learning rate 0.4707 step-time 0.08 perplexity 2.68
  val: perplexity 2.77
global step 6450 learning rate 0.4707 step-time 0.08 perplexity 2.67
  val: perplexity 3.39
global step 6500 learning rate 0.4707 step-time 0.08 perplexity 2.59
  val: perplexity 2.92
global step 6550 learning rate 0.4707 step-time 0.08 perplexity 2.74
  val: perplexity 2.80
global step 6600 learning rate 0.4660 step-time 0.08 perplexity 2.60
  val: perplexity 3.65
global step 6650 learning rate 0.4660 step-time 0.08 perplexity 2.71
  val: perplexity 2.95
global step 6700 learning rate 0.4660 step-time 0.08 perplexity 2.66
  val: perplexity 3.77
global step 6750 learning rate 0.4660 step-time 0.08 perplexity 2.54
  val: perplexity 3.25
global step 6800 learning rate 0.4660 step-time 0.08 perplexity 2.51
  val: perplexity 2.68
global step 6850 learning rate 0.4660 step-time 0.08 perplexity 2.62
  val: perplexity 2.61
global step 6900 learning rate 0.4660 step-time 0.08 perplexity 2.50
  val: perplexity 2.82
global step 6950 learning rate 0.4660 step-time 0.08 perplexity 2.50
  val: perplexity 2.90
global step 7000 learning rate 0.4660 step-time 0.08 perplexity 2.54
  val: perplexity 3.03
global step 7050 learning rate 0.4660 step-time 0.08 perplexity 2.53
  val: perplexity 3.48
global step 7100 learning rate 0.4660 step-time 0.08 perplexity 2.56
  val: perplexity 2.68
global step 7150 learning rate 0.4614 step-time 0.08 perplexity 2.50
  val: perplexity 3.00
global step 7200 learning rate 0.4614 step-time 0.08 perplexity 2.50
  val: perplexity 3.07
global step 7250 learning rate 0.4614 step-time 0.08 perplexity 2.45
  val: perplexity 2.78
global step 7300 learning rate 0.4614 step-time 0.08 perplexity 2.55
  val: perplexity 3.16
global step 7350 learning rate 0.4568 step-time 0.08 perplexity 2.43
  val: perplexity 2.81
global step 7400 learning rate 0.4568 step-time 0.08 perplexity 2.46
  val: perplexity 2.62
global step 7450 learning rate 0.4568 step-time 0.08 perplexity 2.38
  val: perplexity 3.52
global step 7500 learning rate 0.4568 step-time 0.08 perplexity 2.43
  val: perplexity 3.54
global step 7550 learning rate 0.4568 step-time 0.08 perplexity 2.41
  val: perplexity 2.59
global step 7600 learning rate 0.4568 step-time 0.08 perplexity 2.42
  val: perplexity 2.51
global step 7650 learning rate 0.4568 step-time 0.08 perplexity 2.38
  val: perplexity 2.71
global step 7700 learning rate 0.4568 step-time 0.08 perplexity 2.43
  val: perplexity 3.58
global step 7750 learning rate 0.4522 step-time 0.08 perplexity 2.29
  val: perplexity 2.73
global step 7800 learning rate 0.4522 step-time 0.08 perplexity 2.26
  val: perplexity 2.65
global step 7850 learning rate 0.4522 step-time 0.08 perplexity 2.34
  val: perplexity 2.25
global step 7900 learning rate 0.4522 step-time 0.08 perplexity 2.33
  val: perplexity 2.51
global step 7950 learning rate 0.4522 step-time 0.08 perplexity 2.32
  val: perplexity 2.83
global step 8000 learning rate 0.4522 step-time 0.08 perplexity 2.26
  val: perplexity 2.90
global step 8050 learning rate 0.4522 step-time 0.08 perplexity 2.29
  val: perplexity 2.78
global step 8100 learning rate 0.4522 step-time 0.08 perplexity 2.30
  val: perplexity 2.59
global step 8150 learning rate 0.4522 step-time 0.08 perplexity 2.31
  val: perplexity 2.86
global step 8200 learning rate 0.4477 step-time 0.08 perplexity 2.22
  val: perplexity 2.83
global step 8250 learning rate 0.4477 step-time 0.08 perplexity 2.27
  val: perplexity 2.56
global step 8300 learning rate 0.4477 step-time 0.08 perplexity 2.27
  val: perplexity 2.93
global step 8350 learning rate 0.4477 step-time 0.08 perplexity 2.24
  val: perplexity 2.36
global step 8400 learning rate 0.4477 step-time 0.08 perplexity 2.21
  val: perplexity 2.21
global step 8450 learning rate 0.4477 step-time 0.08 perplexity 2.26
  val: perplexity 2.67
global step 8500 learning rate 0.4477 step-time 0.08 perplexity 2.26
  val: perplexity 2.80
global step 8550 learning rate 0.4477 step-time 0.08 perplexity 2.22
  val: perplexity 2.44
global step 8600 learning rate 0.4477 step-time 0.08 perplexity 2.18
  val: perplexity 2.77
global step 8650 learning rate 0.4477 step-time 0.08 perplexity 2.17
  val: perplexity 2.48
global step 8700 learning rate 0.4477 step-time 0.08 perplexity 2.20
  val: perplexity 2.35
global step 8750 learning rate 0.4477 step-time 0.08 perplexity 2.19
  val: perplexity 3.10
global step 8800 learning rate 0.4477 step-time 0.08 perplexity 2.21
  val: perplexity 2.74
global step 8850 learning rate 0.4432 step-time 0.08 perplexity 2.17
  val: perplexity 3.33
global step 8900 learning rate 0.4432 step-time 0.08 perplexity 2.15
  val: perplexity 3.41
global step 8950 learning rate 0.4432 step-time 0.08 perplexity 2.11
  val: perplexity 3.19
global step 9000 learning rate 0.4432 step-time 0.08 perplexity 2.16
  val: perplexity 3.22
global step 9050 learning rate 0.4432 step-time 0.08 perplexity 2.12
  val: perplexity 2.84
global step 9100 learning rate 0.4432 step-time 0.08 perplexity 2.15
  val: perplexity 2.32
global step 9150 learning rate 0.4432 step-time 0.08 perplexity 2.11
  val: perplexity 2.43
global step 9200 learning rate 0.4432 step-time 0.08 perplexity 2.15
  val: perplexity 2.16
global step 9250 learning rate 0.4432 step-time 0.08 perplexity 2.16
  val: perplexity 2.60
global step 9300 learning rate 0.4388 step-time 0.08 perplexity 2.14
  val: perplexity 2.36
global step 9350 learning rate 0.4388 step-time 0.08 perplexity 2.15
  val: perplexity 4.08
global step 9400 learning rate 0.4388 step-time 0.08 perplexity 2.10
  val: perplexity 2.83
global step 9450 learning rate 0.4388 step-time 0.08 perplexity 2.08
  val: perplexity 2.60
global step 9500 learning rate 0.4388 step-time 0.08 perplexity 2.07
  val: perplexity 1.97
global step 9550 learning rate 0.4388 step-time 0.08 perplexity 2.07
  val: perplexity 2.60
global step 9600 learning rate 0.4388 step-time 0.08 perplexity 2.08
  val: perplexity 2.40
global step 9650 learning rate 0.4344 step-time 0.08 perplexity 2.05
  val: perplexity 2.76
global step 9700 learning rate 0.4344 step-time 0.08 perplexity 2.06
  val: perplexity 2.29
global step 9750 learning rate 0.4344 step-time 0.08 perplexity 2.09
  val: perplexity 2.56
global step 9800 learning rate 0.4300 step-time 0.08 perplexity 2.10
  val: perplexity 2.57
global step 9850 learning rate 0.4257 step-time 0.08 perplexity 2.06
  val: perplexity 2.60
global step 9900 learning rate 0.4257 step-time 0.08 perplexity 2.09
  val: perplexity 3.41
global step 9950 learning rate 0.4257 step-time 0.08 perplexity 2.04
  val: perplexity 2.24
global step 10000 learning rate 0.4257 step-time 0.08 perplexity 2.06
  val: perplexity 2.41
global step 10050 learning rate 0.4257 step-time 0.08 perplexity 2.09
  val: perplexity 2.52
global step 10100 learning rate 0.4215 step-time 0.08 perplexity 2.04
  val: perplexity 2.52
global step 10150 learning rate 0.4215 step-time 0.08 perplexity 2.07
  val: perplexity 2.89
global step 10200 learning rate 0.4215 step-time 0.08 perplexity 2.05
  val: perplexity 3.11
global step 10250 learning rate 0.4215 step-time 0.08 perplexity 2.06
  val: perplexity 3.01
global step 10300 learning rate 0.4215 step-time 0.08 perplexity 1.98
  val: perplexity 2.84
global step 10350 learning rate 0.4215 step-time 0.08 perplexity 2.03
  val: perplexity 2.75
global step 10400 learning rate 0.4215 step-time 0.08 perplexity 2.04
  val: perplexity 3.03
global step 10450 learning rate 0.4215 step-time 0.08 perplexity 1.99
  val: perplexity 3.08
global step 10500 learning rate 0.4215 step-time 0.08 perplexity 1.99
  val: perplexity 2.90
global step 10550 learning rate 0.4215 step-time 0.08 perplexity 1.95
  val: perplexity 2.65
global step 10600 learning rate 0.4215 step-time 0.08 perplexity 1.94
  val: perplexity 3.31
global step 10650 learning rate 0.4215 step-time 0.08 perplexity 1.96
  val: perplexity 2.78
global step 10700 learning rate 0.4215 step-time 0.08 perplexity 1.97
  val: perplexity 2.90
global step 10750 learning rate 0.4173 step-time 0.08 perplexity 1.99
  val: perplexity 2.48
global step 10800 learning rate 0.4131 step-time 0.08 perplexity 1.99
  val: perplexity 2.84
global step 10850 learning rate 0.4131 step-time 0.08 perplexity 1.89
  val: perplexity 2.02
global step 10900 learning rate 0.4131 step-time 0.08 perplexity 1.91
  val: perplexity 2.35
global step 10950 learning rate 0.4131 step-time 0.08 perplexity 1.95
  val: perplexity 2.47
global step 11000 learning rate 0.4131 step-time 0.08 perplexity 1.96
  val: perplexity 2.89
global step 11050 learning rate 0.4090 step-time 0.08 perplexity 1.90
  val: perplexity 2.33
global step 11100 learning rate 0.4090 step-time 0.08 perplexity 1.94
  val: perplexity 2.63
global step 11150 learning rate 0.4090 step-time 0.08 perplexity 1.92
  val: perplexity 2.66
global step 11200 learning rate 0.4090 step-time 0.08 perplexity 1.95
  val: perplexity 2.49
global step 11250 learning rate 0.4049 step-time 0.08 perplexity 1.88
  val: perplexity 2.10
global step 11300 learning rate 0.4049 step-time 0.08 perplexity 1.88
  val: perplexity 2.57
global step 11350 learning rate 0.4049 step-time 0.08 perplexity 1.95
  val: perplexity 3.47
global step 11400 learning rate 0.4008 step-time 0.08 perplexity 1.88
  val: perplexity 2.01
global step 11450 learning rate 0.4008 step-time 0.08 perplexity 1.95
  val: perplexity 2.60
global step 11500 learning rate 0.4008 step-time 0.08 perplexity 1.87
  val: perplexity 2.41
global step 11550 learning rate 0.4008 step-time 0.08 perplexity 1.94
  val: perplexity 2.03
global step 11600 learning rate 0.4008 step-time 0.08 perplexity 1.88
  val: perplexity 2.85
global step 11650 learning rate 0.4008 step-time 0.08 perplexity 1.85
  val: perplexity 2.23
global step 11700 learning rate 0.4008 step-time 0.08 perplexity 1.89
  val: perplexity 2.32
global step 11750 learning rate 0.4008 step-time 0.08 perplexity 1.83
  val: perplexity 3.19
global step 11800 learning rate 0.4008 step-time 0.08 perplexity 1.85
  val: perplexity 2.30
global step 11850 learning rate 0.4008 step-time 0.08 perplexity 1.86
  val: perplexity 2.36
global step 11900 learning rate 0.4008 step-time 0.08 perplexity 1.85
  val: perplexity 3.08
global step 11950 learning rate 0.4008 step-time 0.08 perplexity 1.88
  val: perplexity 2.54
global step 12000 learning rate 0.3968 step-time 0.08 perplexity 1.86
  val: perplexity 2.53
global step 12050 learning rate 0.3968 step-time 0.08 perplexity 1.86
  val: perplexity 2.58
global step 12100 learning rate 0.3968 step-time 0.08 perplexity 1.86
  val: perplexity 3.19
global step 12150 learning rate 0.3968 step-time 0.08 perplexity 1.91
  val: perplexity 2.96
global step 12200 learning rate 0.3928 step-time 0.08 perplexity 1.87
  val: perplexity 2.71
global step 12250 learning rate 0.3928 step-time 0.08 perplexity 1.86
  val: perplexity 2.59
global step 12300 learning rate 0.3928 step-time 0.08 perplexity 1.88
  val: perplexity 2.88
global step 12350 learning rate 0.3928 step-time 0.08 perplexity 1.86
  val: perplexity 2.11
global step 12400 learning rate 0.3928 step-time 0.08 perplexity 1.85
  val: perplexity 2.89
global step 12450 learning rate 0.3928 step-time 0.08 perplexity 1.82
  val: perplexity 2.60
global step 12500 learning rate 0.3928 step-time 0.08 perplexity 1.82
  val: perplexity 2.14
global step 12550 learning rate 0.3928 step-time 0.08 perplexity 1.82
  val: perplexity 2.97
global step 12600 learning rate 0.3928 step-time 0.08 perplexity 1.81
  val: perplexity 2.47
global step 12650 learning rate 0.3928 step-time 0.08 perplexity 1.78
  val: perplexity 2.58
global step 12700 learning rate 0.3928 step-time 0.08 perplexity 1.79
  val: perplexity 2.46
global step 12750 learning rate 0.3928 step-time 0.08 perplexity 1.83
  val: perplexity 2.13
global step 12800 learning rate 0.3889 step-time 0.08 perplexity 1.78
  val: perplexity 2.54
global step 12850 learning rate 0.3889 step-time 0.08 perplexity 1.80
  val: perplexity 2.52
global step 12900 learning rate 0.3889 step-time 0.08 perplexity 1.81
  val: perplexity 2.31
global step 12950 learning rate 0.3889 step-time 0.08 perplexity 1.81
  val: perplexity 2.93
global step 13000 learning rate 0.3850 step-time 0.08 perplexity 1.86
  val: perplexity 2.33
global step 13050 learning rate 0.3812 step-time 0.08 perplexity 1.83
  val: perplexity 2.64
global step 13100 learning rate 0.3812 step-time 0.08 perplexity 1.80
  val: perplexity 2.25
global step 13150 learning rate 0.3812 step-time 0.08 perplexity 1.85
  val: perplexity 3.15
global step 13200 learning rate 0.3812 step-time 0.08 perplexity 1.82
  val: perplexity 2.17
global step 13250 learning rate 0.3812 step-time 0.08 perplexity 1.82
  val: perplexity 2.48
global step 13300 learning rate 0.3812 step-time 0.08 perplexity 1.84
  val: perplexity 2.96
global step 13350 learning rate 0.3812 step-time 0.08 perplexity 1.77
  val: perplexity 2.78
global step 13400 learning rate 0.3812 step-time 0.08 perplexity 1.78
  val: perplexity 2.87
global step 13450 learning rate 0.3812 step-time 0.08 perplexity 1.75
  val: perplexity 2.75
global step 13500 learning rate 0.3812 step-time 0.08 perplexity 1.78
  val: perplexity 2.07
global step 13550 learning rate 0.3774 step-time 0.08 perplexity 1.82
  val: perplexity 2.20
global step 13600 learning rate 0.3736 step-time 0.08 perplexity 1.72
  val: perplexity 2.41
global step 13650 learning rate 0.3736 step-time 0.08 perplexity 1.78
  val: perplexity 2.23
global step 13700 learning rate 0.3736 step-time 0.08 perplexity 1.76
  val: perplexity 2.55
global step 13750 learning rate 0.3736 step-time 0.08 perplexity 1.77
  val: perplexity 2.53
global step 13800 learning rate 0.3736 step-time 0.08 perplexity 1.72
  val: perplexity 3.26
global step 13850 learning rate 0.3736 step-time 0.08 perplexity 1.73
  val: perplexity 1.92
global step 13900 learning rate 0.3736 step-time 0.08 perplexity 1.76
  val: perplexity 2.07
global step 13950 learning rate 0.3736 step-time 0.08 perplexity 1.78
  val: perplexity 2.21
global step 14000 learning rate 0.3699 step-time 0.08 perplexity 1.74
  val: perplexity 3.17
global step 14050 learning rate 0.3699 step-time 0.08 perplexity 1.72
  val: perplexity 2.30
global step 14100 learning rate 0.3699 step-time 0.08 perplexity 1.74
  val: perplexity 2.63
global step 14150 learning rate 0.3699 step-time 0.08 perplexity 1.71
  val: perplexity 2.23
global step 14200 learning rate 0.3699 step-time 0.08 perplexity 1.78
  val: perplexity 2.10
global step 14250 learning rate 0.3662 step-time 0.08 perplexity 1.74
  val: perplexity 2.42
global step 14300 learning rate 0.3662 step-time 0.08 perplexity 1.74
  val: perplexity 1.95
global step 14350 learning rate 0.3662 step-time 0.08 perplexity 1.74
  val: perplexity 2.56
global step 14400 learning rate 0.3662 step-time 0.08 perplexity 1.72
  val: perplexity 2.18
global step 14450 learning rate 0.3662 step-time 0.08 perplexity 1.76
  val: perplexity 2.18
global step 14500 learning rate 0.3625 step-time 0.08 perplexity 1.72
  val: perplexity 2.46
global step 14550 learning rate 0.3625 step-time 0.08 perplexity 1.72
  val: perplexity 2.20
global step 14600 learning rate 0.3625 step-time 0.08 perplexity 1.74
  val: perplexity 1.88
global step 14650 learning rate 0.3625 step-time 0.08 perplexity 1.74
  val: perplexity 2.11
global step 14700 learning rate 0.3625 step-time 0.08 perplexity 1.68
  val: perplexity 3.22
global step 14750 learning rate 0.3625 step-time 0.08 perplexity 1.70
  val: perplexity 2.67
global step 14800 learning rate 0.3625 step-time 0.08 perplexity 1.74
  val: perplexity 3.45
global step 14850 learning rate 0.3589 step-time 0.08 perplexity 1.69
  val: perplexity 2.51
global step 14900 learning rate 0.3589 step-time 0.08 perplexity 1.75
  val: perplexity 2.79
global step 14950 learning rate 0.3553 step-time 0.08 perplexity 1.71
  val: perplexity 2.43
global step 15000 learning rate 0.3553 step-time 0.08 perplexity 1.67
  val: perplexity 2.84
global step 15050 learning rate 0.3553 step-time 0.08 perplexity 1.70
  val: perplexity 2.46
global step 15100 learning rate 0.3553 step-time 0.08 perplexity 1.70
  val: perplexity 2.40
global step 15150 learning rate 0.3553 step-time 0.08 perplexity 1.65
  val: perplexity 2.27
global step 15200 learning rate 0.3553 step-time 0.08 perplexity 1.68
  val: perplexity 3.09
global step 15250 learning rate 0.3553 step-time 0.08 perplexity 1.70
  val: perplexity 2.60
global step 15300 learning rate 0.3553 step-time 0.08 perplexity 1.70
  val: perplexity 3.12
global step 15350 learning rate 0.3517 step-time 0.08 perplexity 1.71
  val: perplexity 2.64
global step 15400 learning rate 0.3482 step-time 0.08 perplexity 1.67
  val: perplexity 2.87
global step 15450 learning rate 0.3482 step-time 0.08 perplexity 1.70
  val: perplexity 1.94
global step 15500 learning rate 0.3482 step-time 0.08 perplexity 1.65
  val: perplexity 2.56
global step 15550 learning rate 0.3482 step-time 0.08 perplexity 1.68
  val: perplexity 3.10
global step 15600 learning rate 0.3482 step-time 0.08 perplexity 1.71
  val: perplexity 2.26
global step 15650 learning rate 0.3447 step-time 0.08 perplexity 1.64
  val: perplexity 2.61
global step 15700 learning rate 0.3447 step-time 0.08 perplexity 1.67
  val: perplexity 2.86
global step 15750 learning rate 0.3447 step-time 0.08 perplexity 1.68
  val: perplexity 2.43
global step 15800 learning rate 0.3447 step-time 0.08 perplexity 1.70
  val: perplexity 2.45
global step 15850 learning rate 0.3413 step-time 0.08 perplexity 1.68
  val: perplexity 2.48
global step 15900 learning rate 0.3413 step-time 0.08 perplexity 1.64
  val: perplexity 2.34
global step 15950 learning rate 0.3413 step-time 0.08 perplexity 1.64
  val: perplexity 2.49
global step 16000 learning rate 0.3413 step-time 0.08 perplexity 1.66
  val: perplexity 2.72
global step 16050 learning rate 0.3413 step-time 0.08 perplexity 1.65
  val: perplexity 2.74
global step 16100 learning rate 0.3413 step-time 0.08 perplexity 1.64
  val: perplexity 2.98
global step 16150 learning rate 0.3413 step-time 0.08 perplexity 1.63
  val: perplexity 2.78
global step 16200 learning rate 0.3413 step-time 0.08 perplexity 1.67
  val: perplexity 2.41
global step 16250 learning rate 0.3379 step-time 0.08 perplexity 1.67
  val: perplexity 1.68
global step 16300 learning rate 0.3379 step-time 0.08 perplexity 1.65
  val: perplexity 2.18
global step 16350 learning rate 0.3379 step-time 0.08 perplexity 1.65
  val: perplexity 3.38
global step 16400 learning rate 0.3379 step-time 0.08 perplexity 1.64
  val: perplexity 2.50
global step 16450 learning rate 0.3379 step-time 0.08 perplexity 1.66
  val: perplexity 2.74
global step 16500 learning rate 0.3345 step-time 0.08 perplexity 1.66
  val: perplexity 2.26
global step 16550 learning rate 0.3311 step-time 0.08 perplexity 1.63
  val: perplexity 2.36
global step 16600 learning rate 0.3311 step-time 0.08 perplexity 1.62
  val: perplexity 2.09
global step 16650 learning rate 0.3311 step-time 0.08 perplexity 1.61
  val: perplexity 2.46
global step 16700 learning rate 0.3311 step-time 0.08 perplexity 1.66
  val: perplexity 2.33
global step 16750 learning rate 0.3278 step-time 0.08 perplexity 1.59
  val: perplexity 2.71
global step 16800 learning rate 0.3278 step-time 0.08 perplexity 1.61
  val: perplexity 2.45
global step 16850 learning rate 0.3278 step-time 0.08 perplexity 1.61
  val: perplexity 2.51
global step 16900 learning rate 0.3278 step-time 0.08 perplexity 1.62
  val: perplexity 1.74
global step 16950 learning rate 0.3246 step-time 0.08 perplexity 1.62
  val: perplexity 2.48
global step 17000 learning rate 0.3246 step-time 0.08 perplexity 1.62
  val: perplexity 2.61
global step 17050 learning rate 0.3246 step-time 0.08 perplexity 1.61
  val: perplexity 2.19
global step 17100 learning rate 0.3246 step-time 0.08 perplexity 1.62
  val: perplexity 1.84
global step 17150 learning rate 0.3213 step-time 0.08 perplexity 1.58
  val: perplexity 2.03
global step 17200 learning rate 0.3213 step-time 0.08 perplexity 1.65
  val: perplexity 3.82
global step 17250 learning rate 0.3181 step-time 0.08 perplexity 1.61
  val: perplexity 2.23
global step 17300 learning rate 0.3181 step-time 0.08 perplexity 1.63
  val: perplexity 1.88
global step 17350 learning rate 0.3181 step-time 0.08 perplexity 1.61
  val: perplexity 2.79
global step 17400 learning rate 0.3181 step-time 0.08 perplexity 1.62
  val: perplexity 2.87
global step 17450 learning rate 0.3181 step-time 0.08 perplexity 1.60
  val: perplexity 2.37
global step 17500 learning rate 0.3181 step-time 0.08 perplexity 1.64
  val: perplexity 1.92
global step 17550 learning rate 0.3149 step-time 0.08 perplexity 1.59
  val: perplexity 2.03
global step 17600 learning rate 0.3149 step-time 0.08 perplexity 1.56
  val: perplexity 2.32
global step 17650 learning rate 0.3149 step-time 0.08 perplexity 1.61
  val: perplexity 1.95
global step 17700 learning rate 0.3149 step-time 0.08 perplexity 1.58
  val: perplexity 2.06
global step 17750 learning rate 0.3149 step-time 0.08 perplexity 1.62
  val: perplexity 2.55
global step 17800 learning rate 0.3118 step-time 0.08 perplexity 1.57
  val: perplexity 2.08
global step 17850 learning rate 0.3118 step-time 0.08 perplexity 1.62
  val: perplexity 2.75
global step 17900 learning rate 0.3086 step-time 0.08 perplexity 1.60
  val: perplexity 2.49
global step 17950 learning rate 0.3086 step-time 0.08 perplexity 1.59
  val: perplexity 2.15
global step 18000 learning rate 0.3086 step-time 0.08 perplexity 1.60
  val: perplexity 2.37
global step 18050 learning rate 0.3086 step-time 0.08 perplexity 1.55
  val: perplexity 2.29
global step 18100 learning rate 0.3086 step-time 0.08 perplexity 1.59
  val: perplexity 2.26
global step 18150 learning rate 0.3086 step-time 0.08 perplexity 1.61
  val: perplexity 2.90
global step 18200 learning rate 0.3056 step-time 0.08 perplexity 1.57
  val: perplexity 2.83
global step 18250 learning rate 0.3056 step-time 0.08 perplexity 1.56
  val: perplexity 3.29
global step 18300 learning rate 0.3056 step-time 0.08 perplexity 1.64
  val: perplexity 2.75
global step 18350 learning rate 0.3025 step-time 0.08 perplexity 1.56
  val: perplexity 2.00
global step 18400 learning rate 0.3025 step-time 0.08 perplexity 1.57
  val: perplexity 2.66
global step 18450 learning rate 0.3025 step-time 0.08 perplexity 1.53
  val: perplexity 2.18
global step 18500 learning rate 0.3025 step-time 0.08 perplexity 1.58
  val: perplexity 2.89
global step 18550 learning rate 0.2995 step-time 0.08 perplexity 1.54
  val: perplexity 2.87
global step 18600 learning rate 0.2995 step-time 0.08 perplexity 1.60
  val: perplexity 2.17
global step 18650 learning rate 0.2965 step-time 0.08 perplexity 1.57
  val: perplexity 1.94
global step 18700 learning rate 0.2965 step-time 0.08 perplexity 1.54
  val: perplexity 2.27
global step 18750 learning rate 0.2965 step-time 0.08 perplexity 1.55
  val: perplexity 2.14
global step 18800 learning rate 0.2965 step-time 0.08 perplexity 1.56
  val: perplexity 1.88
global step 18850 learning rate 0.2965 step-time 0.08 perplexity 1.53
  val: perplexity 2.33
global step 18900 learning rate 0.2965 step-time 0.08 perplexity 1.55
  val: perplexity 2.54
global step 18950 learning rate 0.2965 step-time 0.08 perplexity 1.59
  val: perplexity 3.01
global step 19000 learning rate 0.2935 step-time 0.08 perplexity 1.54
  val: perplexity 2.36
global step 19050 learning rate 0.2935 step-time 0.08 perplexity 1.54
  val: perplexity 2.15
global step 19100 learning rate 0.2935 step-time 0.08 perplexity 1.55
  val: perplexity 2.95
global step 19150 learning rate 0.2935 step-time 0.08 perplexity 1.54
  val: perplexity 2.14
global step 19200 learning rate 0.2935 step-time 0.08 perplexity 1.55
  val: perplexity 2.35
global step 19250 learning rate 0.2935 step-time 0.08 perplexity 1.54
  val: perplexity 2.54
global step 19300 learning rate 0.2935 step-time 0.08 perplexity 1.52
  val: perplexity 2.25
global step 19350 learning rate 0.2935 step-time 0.08 perplexity 1.55
  val: perplexity 2.12
global step 19400 learning rate 0.2906 step-time 0.08 perplexity 1.55
  val: perplexity 2.02
global step 19450 learning rate 0.2906 step-time 0.08 perplexity 1.54
  val: perplexity 2.72
global step 19500 learning rate 0.2906 step-time 0.08 perplexity 1.52
  val: perplexity 3.33
global step 19550 learning rate 0.2906 step-time 0.08 perplexity 1.53
  val: perplexity 2.11
global step 19600 learning rate 0.2906 step-time 0.08 perplexity 1.54
  val: perplexity 2.48
global step 19650 learning rate 0.2877 step-time 0.08 perplexity 1.53
  val: perplexity 1.99
global step 19700 learning rate 0.2877 step-time 0.08 perplexity 1.52
  val: perplexity 2.28
global step 19750 learning rate 0.2877 step-time 0.08 perplexity 1.52
  val: perplexity 2.62
global step 19800 learning rate 0.2877 step-time 0.08 perplexity 1.51
  val: perplexity 2.73
global step 19850 learning rate 0.2877 step-time 0.08 perplexity 1.54
  val: perplexity 2.26
global step 19900 learning rate 0.2848 step-time 0.08 perplexity 1.52
  val: perplexity 2.74
global step 19950 learning rate 0.2848 step-time 0.08 perplexity 1.53
  val: perplexity 2.29
global step 20000 learning rate 0.2848 step-time 0.08 perplexity 1.52
  val: perplexity 2.25
global step 20050 learning rate 0.2848 step-time 0.08 perplexity 1.51
  val: perplexity 2.02
global step 20100 learning rate 0.2848 step-time 0.08 perplexity 1.51
  val: perplexity 2.56
global step 20150 learning rate 0.2848 step-time 0.08 perplexity 1.49
  val: perplexity 2.29
global step 20200 learning rate 0.2848 step-time 0.08 perplexity 1.52
  val: perplexity 2.57
global step 20250 learning rate 0.2820 step-time 0.08 perplexity 1.51
  val: perplexity 2.47
global step 20300 learning rate 0.2820 step-time 0.08 perplexity 1.51
  val: perplexity 2.65
global step 20350 learning rate 0.2820 step-time 0.08 perplexity 1.54
  val: perplexity 1.70
global step 20400 learning rate 0.2791 step-time 0.08 perplexity 1.54
  val: perplexity 1.58
global step 20450 learning rate 0.2791 step-time 0.08 perplexity 1.49
  val: perplexity 2.61
global step 20500 learning rate 0.2791 step-time 0.08 perplexity 1.51
  val: perplexity 2.59
global step 20550 learning rate 0.2791 step-time 0.08 perplexity 1.50
  val: perplexity 2.40
global step 20600 learning rate 0.2791 step-time 0.08 perplexity 1.55
  val: perplexity 2.57
global step 20650 learning rate 0.2763 step-time 0.08 perplexity 1.52
  val: perplexity 2.51
global step 20700 learning rate 0.2763 step-time 0.08 perplexity 1.52
  val: perplexity 1.93
global step 20750 learning rate 0.2763 step-time 0.08 perplexity 1.54
  val: perplexity 1.93
global step 20800 learning rate 0.2763 step-time 0.08 perplexity 1.52
  val: perplexity 2.39
global step 20850 learning rate 0.2763 step-time 0.08 perplexity 1.50
  val: perplexity 2.10
global step 20900 learning rate 0.2763 step-time 0.08 perplexity 1.50
  val: perplexity 3.09
global step 20950 learning rate 0.2763 step-time 0.08 perplexity 1.47
  val: perplexity 2.66
global step 21000 learning rate 0.2763 step-time 0.08 perplexity 1.51
  val: perplexity 2.12
global step 21050 learning rate 0.2736 step-time 0.08 perplexity 1.53
  val: perplexity 2.07
global step 21100 learning rate 0.2708 step-time 0.08 perplexity 1.50
  val: perplexity 2.26
global step 21150 learning rate 0.2708 step-time 0.08 perplexity 1.52
  val: perplexity 2.41
global step 21200 learning rate 0.2708 step-time 0.08 perplexity 1.49
  val: perplexity 1.95
global step 21250 learning rate 0.2708 step-time 0.08 perplexity 1.51
  val: perplexity 2.69
global step 21300 learning rate 0.2708 step-time 0.08 perplexity 1.50
  val: perplexity 3.02
global step 21350 learning rate 0.2708 step-time 0.08 perplexity 1.51
  val: perplexity 3.08
global step 21400 learning rate 0.2681 step-time 0.08 perplexity 1.51
  val: perplexity 1.95
global step 21450 learning rate 0.2681 step-time 0.08 perplexity 1.47
  val: perplexity 2.53
global step 21500 learning rate 0.2681 step-time 0.08 perplexity 1.53
  val: perplexity 2.48
global step 21550 learning rate 0.2655 step-time 0.08 perplexity 1.50
  val: perplexity 1.79
global step 21600 learning rate 0.2655 step-time 0.08 perplexity 1.46
  val: perplexity 2.41
global step 21650 learning rate 0.2655 step-time 0.08 perplexity 1.50
  val: perplexity 1.44
global step 21700 learning rate 0.2655 step-time 0.08 perplexity 1.49
  val: perplexity 2.39
global step 21750 learning rate 0.2655 step-time 0.08 perplexity 1.48
  val: perplexity 3.59
global step 21800 learning rate 0.2655 step-time 0.08 perplexity 1.51
  val: perplexity 2.37
global step 21850 learning rate 0.2628 step-time 0.08 perplexity 1.47
  val: perplexity 2.27
global step 21900 learning rate 0.2628 step-time 0.08 perplexity 1.47
  val: perplexity 2.07
global step 21950 learning rate 0.2628 step-time 0.08 perplexity 1.45
  val: perplexity 3.42
global step 22000 learning rate 0.2628 step-time 0.08 perplexity 1.46
  val: perplexity 2.24
global step 22050 learning rate 0.2628 step-time 0.08 perplexity 1.50
  val: perplexity 2.63
global step 22100 learning rate 0.2602 step-time 0.08 perplexity 1.48
  val: perplexity 2.30
global step 22150 learning rate 0.2602 step-time 0.08 perplexity 1.46
  val: perplexity 2.69
global step 22200 learning rate 0.2602 step-time 0.08 perplexity 1.48
  val: perplexity 2.68
global step 22250 learning rate 0.2602 step-time 0.08 perplexity 1.49
  val: perplexity 2.39
global step 22300 learning rate 0.2576 step-time 0.08 perplexity 1.50
  val: perplexity 2.22
global step 22350 learning rate 0.2550 step-time 0.08 perplexity 1.47
  val: perplexity 2.28
global step 22400 learning rate 0.2550 step-time 0.08 perplexity 1.46
  val: perplexity 2.48
global step 22450 learning rate 0.2550 step-time 0.08 perplexity 1.46
  val: perplexity 2.65
global step 22500 learning rate 0.2550 step-time 0.08 perplexity 1.49
  val: perplexity 2.47
global step 22550 learning rate 0.2524 step-time 0.08 perplexity 1.46
  val: perplexity 3.22
global step 22600 learning rate 0.2524 step-time 0.08 perplexity 1.46
  val: perplexity 2.18
global step 22650 learning rate 0.2524 step-time 0.08 perplexity 1.47
  val: perplexity 2.10
global step 22700 learning rate 0.2524 step-time 0.08 perplexity 1.47
  val: perplexity 2.45
global step 22750 learning rate 0.2524 step-time 0.08 perplexity 1.48
  val: perplexity 1.97
global step 22800 learning rate 0.2499 step-time 0.08 perplexity 1.48
  val: perplexity 2.94
global step 22850 learning rate 0.2499 step-time 0.08 perplexity 1.48
  val: perplexity 2.67
global step 22900 learning rate 0.2499 step-time 0.08 perplexity 1.45
  val: perplexity 2.50
global step 22950 learning rate 0.2499 step-time 0.08 perplexity 1.45
  val: perplexity 1.62
global step 23000 learning rate 0.2499 step-time 0.08 perplexity 1.46
  val: perplexity 1.87
global step 23050 learning rate 0.2499 step-time 0.08 perplexity 1.46
  val: perplexity 2.12
global step 23100 learning rate 0.2474 step-time 0.08 perplexity 1.43
  val: perplexity 2.14
global step 23150 learning rate 0.2474 step-time 0.08 perplexity 1.44
  val: perplexity 2.84
global step 23200 learning rate 0.2474 step-time 0.08 perplexity 1.45
  val: perplexity 3.03
global step 23250 learning rate 0.2474 step-time 0.08 perplexity 1.46
  val: perplexity 4.10
global step 23300 learning rate 0.2449 step-time 0.08 perplexity 1.43
  val: perplexity 2.45
global step 23350 learning rate 0.2449 step-time 0.08 perplexity 1.43
  val: perplexity 2.59
global step 23400 learning rate 0.2449 step-time 0.08 perplexity 1.47
  val: perplexity 2.01
global step 23450 learning rate 0.2425 step-time 0.08 perplexity 1.42
  val: perplexity 3.03
global step 23500 learning rate 0.2425 step-time 0.08 perplexity 1.44
  val: perplexity 2.62
global step 23550 learning rate 0.2425 step-time 0.08 perplexity 1.45
  val: perplexity 2.33
global step 23600 learning rate 0.2425 step-time 0.08 perplexity 1.44
  val: perplexity 2.32
global step 23650 learning rate 0.2425 step-time 0.08 perplexity 1.45
  val: perplexity 2.34
global step 23700 learning rate 0.2425 step-time 0.08 perplexity 1.44
  val: perplexity 3.50
global step 23750 learning rate 0.2425 step-time 0.08 perplexity 1.43
  val: perplexity 2.12
global step 23800 learning rate 0.2425 step-time 0.08 perplexity 1.44
  val: perplexity 2.20
global step 23850 learning rate 0.2425 step-time 0.08 perplexity 1.45
  val: perplexity 2.44
global step 23900 learning rate 0.2401 step-time 0.08 perplexity 1.41
  val: perplexity 2.25
global step 23950 learning rate 0.2401 step-time 0.08 perplexity 1.43
  val: perplexity 2.43
global step 24000 learning rate 0.2401 step-time 0.08 perplexity 1.42
  val: perplexity 2.24
global step 24050 learning rate 0.2401 step-time 0.08 perplexity 1.45
  val: perplexity 2.21
global step 24100 learning rate 0.2377 step-time 0.08 perplexity 1.43
  val: perplexity 2.46
global step 24150 learning rate 0.2377 step-time 0.08 perplexity 1.43
  val: perplexity 2.13
global step 24200 learning rate 0.2377 step-time 0.08 perplexity 1.42
  val: perplexity 2.41
global step 24250 learning rate 0.2377 step-time 0.08 perplexity 1.43
  val: perplexity 2.06
global step 24300 learning rate 0.2377 step-time 0.08 perplexity 1.42
  val: perplexity 4.17
global step 24350 learning rate 0.2377 step-time 0.08 perplexity 1.41
  val: perplexity 2.18
global step 24400 learning rate 0.2377 step-time 0.08 perplexity 1.42
  val: perplexity 2.53
global step 24450 learning rate 0.2377 step-time 0.08 perplexity 1.41
  val: perplexity 2.14
global step 24500 learning rate 0.2377 step-time 0.08 perplexity 1.43
  val: perplexity 2.24
global step 24550 learning rate 0.2353 step-time 0.08 perplexity 1.42
  val: perplexity 1.95
global step 24600 learning rate 0.2353 step-time 0.08 perplexity 1.40
  val: perplexity 2.50
global step 24650 learning rate 0.2353 step-time 0.08 perplexity 1.43
  val: perplexity 2.32
global step 24700 learning rate 0.2329 step-time 0.08 perplexity 1.40
  val: perplexity 2.73
global step 24750 learning rate 0.2329 step-time 0.08 perplexity 1.41
  val: perplexity 1.87
global step 24800 learning rate 0.2329 step-time 0.08 perplexity 1.41
  val: perplexity 2.52
global step 24850 learning rate 0.2329 step-time 0.08 perplexity 1.44
  val: perplexity 2.97
global step 24900 learning rate 0.2306 step-time 0.08 perplexity 1.42
  val: perplexity 3.50
global step 24950 learning rate 0.2306 step-time 0.08 perplexity 1.42
  val: perplexity 2.08
global step 25000 learning rate 0.2306 step-time 0.08 perplexity 1.42
  val: perplexity 2.35
global step 25050 learning rate 0.2306 step-time 0.08 perplexity 1.42
  val: perplexity 2.03
global step 25100 learning rate 0.2306 step-time 0.08 perplexity 1.41
  val: perplexity 2.28
global step 25150 learning rate 0.2306 step-time 0.08 perplexity 1.41
  val: perplexity 2.14
global step 25200 learning rate 0.2306 step-time 0.08 perplexity 1.43
  val: perplexity 2.74
global step 25250 learning rate 0.2283 step-time 0.08 perplexity 1.42
  val: perplexity 2.19
global step 25300 learning rate 0.2283 step-time 0.08 perplexity 1.41
  val: perplexity 2.78
global step 25350 learning rate 0.2283 step-time 0.08 perplexity 1.41
  val: perplexity 2.28
global step 25400 learning rate 0.2283 step-time 0.08 perplexity 1.42
  val: perplexity 2.58
global step 25450 learning rate 0.2283 step-time 0.08 perplexity 1.40
  val: perplexity 3.63
global step 25500 learning rate 0.2283 step-time 0.08 perplexity 1.41
  val: perplexity 2.43
global step 25550 learning rate 0.2283 step-time 0.08 perplexity 1.41
  val: perplexity 2.69
global step 25600 learning rate 0.2283 step-time 0.08 perplexity 1.42
  val: perplexity 2.28
global step 25650 learning rate 0.2260 step-time 0.08 perplexity 1.40
  val: perplexity 1.73
global step 25700 learning rate 0.2260 step-time 0.08 perplexity 1.42
  val: perplexity 2.55
global step 25750 learning rate 0.2238 step-time 0.08 perplexity 1.41
  val: perplexity 2.08
global step 25800 learning rate 0.2238 step-time 0.08 perplexity 1.42
  val: perplexity 2.77
global step 25850 learning rate 0.2238 step-time 0.08 perplexity 1.43
  val: perplexity 2.61
global step 25900 learning rate 0.2215 step-time 0.08 perplexity 1.39
  val: perplexity 2.90
global step 25950 learning rate 0.2215 step-time 0.08 perplexity 1.39
  val: perplexity 3.18
global step 26000 learning rate 0.2215 step-time 0.08 perplexity 1.41
  val: perplexity 1.96
global step 26050 learning rate 0.2215 step-time 0.08 perplexity 1.39
  val: perplexity 3.15
global step 26100 learning rate 0.2215 step-time 0.08 perplexity 1.39
  val: perplexity 2.13
global step 26150 learning rate 0.2215 step-time 0.08 perplexity 1.41
  val: perplexity 2.79
global step 26200 learning rate 0.2215 step-time 0.08 perplexity 1.38
  val: perplexity 2.79
global step 26250 learning rate 0.2215 step-time 0.08 perplexity 1.40
  val: perplexity 2.22
global step 26300 learning rate 0.2215 step-time 0.08 perplexity 1.41
  val: perplexity 2.25
global step 26350 learning rate 0.2193 step-time 0.08 perplexity 1.38
  val: perplexity 1.81
global step 26400 learning rate 0.2193 step-time 0.08 perplexity 1.40
  val: perplexity 2.08
global step 26450 learning rate 0.2193 step-time 0.08 perplexity 1.39
  val: perplexity 2.83
global step 26500 learning rate 0.2193 step-time 0.08 perplexity 1.38
  val: perplexity 2.50
global step 26550 learning rate 0.2193 step-time 0.08 perplexity 1.37
  val: perplexity 1.94
global step 26600 learning rate 0.2193 step-time 0.08 perplexity 1.40
  val: perplexity 3.45
global step 26650 learning rate 0.2171 step-time 0.08 perplexity 1.39
  val: perplexity 2.02
global step 26700 learning rate 0.2171 step-time 0.08 perplexity 1.39
  val: perplexity 2.26
global step 26750 learning rate 0.2171 step-time 0.08 perplexity 1.39
  val: perplexity 2.30
global step 26800 learning rate 0.2171 step-time 0.08 perplexity 1.38
  val: perplexity 1.99
global step 26850 learning rate 0.2171 step-time 0.08 perplexity 1.39
  val: perplexity 2.11
global step 26900 learning rate 0.2171 step-time 0.08 perplexity 1.42
  val: perplexity 1.98
global step 26950 learning rate 0.2149 step-time 0.08 perplexity 1.38
  val: perplexity 3.11
global step 27000 learning rate 0.2149 step-time 0.08 perplexity 1.40
  val: perplexity 2.23
global step 27050 learning rate 0.2149 step-time 0.08 perplexity 1.39
  val: perplexity 3.58
global step 27100 learning rate 0.2149 step-time 0.08 perplexity 1.38
  val: perplexity 2.41
global step 27150 learning rate 0.2149 step-time 0.08 perplexity 1.40
  val: perplexity 2.41
global step 27200 learning rate 0.2128 step-time 0.08 perplexity 1.37
  val: perplexity 2.21
global step 27250 learning rate 0.2128 step-time 0.08 perplexity 1.37
  val: perplexity 2.42
global step 27300 learning rate 0.2128 step-time 0.08 perplexity 1.37
  val: perplexity 2.22
global step 27350 learning rate 0.2128 step-time 0.08 perplexity 1.37
  val: perplexity 2.21
global step 27400 learning rate 0.2128 step-time 0.08 perplexity 1.39
  val: perplexity 2.49
global step 27450 learning rate 0.2107 step-time 0.08 perplexity 1.36
  val: perplexity 2.86
global step 27500 learning rate 0.2107 step-time 0.08 perplexity 1.35
  val: perplexity 3.63
global step 27550 learning rate 0.2107 step-time 0.08 perplexity 1.38
  val: perplexity 2.45
global step 27600 learning rate 0.2107 step-time 0.08 perplexity 1.37
  val: perplexity 2.62
global step 27650 learning rate 0.2107 step-time 0.08 perplexity 1.37
  val: perplexity 3.04
global step 27700 learning rate 0.2107 step-time 0.08 perplexity 1.36
  val: perplexity 2.61
global step 27750 learning rate 0.2107 step-time 0.08 perplexity 1.36
  val: perplexity 2.12
global step 27800 learning rate 0.2107 step-time 0.08 perplexity 1.34
  val: perplexity 1.79
global step 27850 learning rate 0.2107 step-time 0.08 perplexity 1.35
  val: perplexity 3.19
global step 27900 learning rate 0.2107 step-time 0.08 perplexity 1.38
  val: perplexity 2.39
global step 27950 learning rate 0.2086 step-time 0.08 perplexity 1.36
  val: perplexity 2.41
global step 28000 learning rate 0.2086 step-time 0.08 perplexity 1.36
  val: perplexity 2.79
global step 28050 learning rate 0.2086 step-time 0.08 perplexity 1.37
  val: perplexity 2.08
global step 28100 learning rate 0.2086 step-time 0.08 perplexity 1.36
  val: perplexity 2.25
global step 28150 learning rate 0.2086 step-time 0.08 perplexity 1.36
  val: perplexity 2.54
global step 28200 learning rate 0.2086 step-time 0.08 perplexity 1.37
  val: perplexity 2.08
global step 28250 learning rate 0.2065 step-time 0.08 perplexity 1.37
  val: perplexity 2.05
global step 28300 learning rate 0.2044 step-time 0.08 perplexity 1.37
  val: perplexity 1.75
global step 28350 learning rate 0.2044 step-time 0.08 perplexity 1.36
  val: perplexity 2.40
global step 28400 learning rate 0.2044 step-time 0.08 perplexity 1.36
  val: perplexity 2.89
global step 28450 learning rate 0.2044 step-time 0.08 perplexity 1.36
  val: perplexity 3.34
global step 28500 learning rate 0.2044 step-time 0.08 perplexity 1.37
  val: perplexity 1.65
global step 28550 learning rate 0.2024 step-time 0.08 perplexity 1.37
  val: perplexity 1.95
global step 28600 learning rate 0.2003 step-time 0.08 perplexity 1.38
  val: perplexity 2.06
global step 28650 learning rate 0.1983 step-time 0.08 perplexity 1.35
  val: perplexity 2.67
global step 28700 learning rate 0.1983 step-time 0.08 perplexity 1.35
  val: perplexity 2.02
global step 28750 learning rate 0.1983 step-time 0.08 perplexity 1.38
  val: perplexity 2.36
global step 28800 learning rate 0.1983 step-time 0.08 perplexity 1.35
  val: perplexity 1.69
global step 28850 learning rate 0.1983 step-time 0.08 perplexity 1.35
  val: perplexity 1.89
global step 28900 learning rate 0.1983 step-time 0.08 perplexity 1.37
  val: perplexity 2.21
global step 28950 learning rate 0.1983 step-time 0.08 perplexity 1.37
  val: perplexity 2.22
global step 29000 learning rate 0.1983 step-time 0.08 perplexity 1.34
  val: perplexity 3.28
global step 29050 learning rate 0.1983 step-time 0.08 perplexity 1.34
  val: perplexity 2.51
global step 29100 learning rate 0.1983 step-time 0.08 perplexity 1.38
  val: perplexity 1.94
global step 29150 learning rate 0.1964 step-time 0.08 perplexity 1.36
  val: perplexity 2.81
global step 29200 learning rate 0.1964 step-time 0.08 perplexity 1.34
  val: perplexity 2.10
global step 29250 learning rate 0.1964 step-time 0.08 perplexity 1.34
  val: perplexity 2.06
global step 29300 learning rate 0.1964 step-time 0.08 perplexity 1.36
  val: perplexity 3.34
global step 29350 learning rate 0.1964 step-time 0.08 perplexity 1.35
  val: perplexity 2.07
global step 29400 learning rate 0.1964 step-time 0.08 perplexity 1.36
  val: perplexity 1.76
global step 29450 learning rate 0.1964 step-time 0.08 perplexity 1.36
  val: perplexity 3.14
global step 29500 learning rate 0.1944 step-time 0.08 perplexity 1.34
  val: perplexity 2.27
global step 29550 learning rate 0.1944 step-time 0.08 perplexity 1.34
  val: perplexity 3.10
global step 29600 learning rate 0.1944 step-time 0.08 perplexity 1.35
  val: perplexity 2.53
global step 29650 learning rate 0.1944 step-time 0.08 perplexity 1.35
  val: perplexity 2.19
global step 29700 learning rate 0.1924 step-time 0.08 perplexity 1.36
  val: perplexity 2.65
global step 29750 learning rate 0.1905 step-time 0.08 perplexity 1.33
  val: perplexity 2.59
global step 29800 learning rate 0.1905 step-time 0.08 perplexity 1.34
  val: perplexity 2.67
global step 29850 learning rate 0.1905 step-time 0.08 perplexity 1.35
  val: perplexity 2.27
global step 29900 learning rate 0.1905 step-time 0.08 perplexity 1.34
  val: perplexity 1.82
global step 29950 learning rate 0.1905 step-time 0.08 perplexity 1.35
  val: perplexity 2.68
global step 30000 learning rate 0.1905 step-time 0.08 perplexity 1.31
  val: perplexity 2.44
